.....................
----------------------------------------------------------------------
Ran 21 tests in 0.000s

OK
Name               Stmts   Miss Branch BrPart  Cover   Missing
--------------------------------------------------------------
Diplomacy.py          77      0     36      2    98%   88->84, 97->91
TestDiplomacy.py     157      0      2      0   100%
--------------------------------------------------------------
TOTAL                234      0     38      2    99%
