.........
----------------------------------------------------------------------
Ran 9 tests in 0.001s

OK
Name               Stmts   Miss Branch BrPart  Cover   Missing
--------------------------------------------------------------
Diplomacy.py          73      1     42      2    97%   26->28, 32
TestDiplomacy.py      55      0      4      1    98%   108->exit
--------------------------------------------------------------
TOTAL                128      1     46      3    98%
