......................
----------------------------------------------------------------------
Ran 22 tests in 0.004s

OK
Name               Stmts   Miss Branch BrPart  Cover   Missing
--------------------------------------------------------------
Diplomacy.py         109      0     63      0   100%
TestDiplomacy.py     114      0      0      0   100%
--------------------------------------------------------------
TOTAL                223      0     63      0   100%
